<?xml version="1.0" encoding="utf-8"?>
<!-- Generator: Adobe Illustrator 19.0.0, SVG Export Plug-In . SVG Version: 6.00 Build 0)  -->
<!DOCTYPE svg PUBLIC "-//W3C//DTD SVG 1.1//EN" "http://www.w3.org/Graphics/SVG/1.1/DTD/svg11.dtd" [
	<!ENTITY ns_extend "http://ns.adobe.com/Extensibility/1.0/">
	<!ENTITY ns_ai "http://ns.adobe.com/AdobeIllustrator/10.0/">
	<!ENTITY ns_graphs "http://ns.adobe.com/Graphs/1.0/">
	<!ENTITY ns_vars "http://ns.adobe.com/Variables/1.0/">
	<!ENTITY ns_imrep "http://ns.adobe.com/ImageReplacement/1.0/">
	<!ENTITY ns_sfw "http://ns.adobe.com/SaveForWeb/1.0/">
	<!ENTITY ns_custom "http://ns.adobe.com/GenericCustomNamespace/1.0/">
	<!ENTITY ns_adobe_xpath "http://ns.adobe.com/XPath/1.0/">
]>
<svg version="1.1" id="Layer_2" xmlns:x="&ns_extend;" xmlns:i="&ns_ai;" xmlns:graph="&ns_graphs;"
	 xmlns="http://www.w3.org/2000/svg" xmlns:xlink="http://www.w3.org/1999/xlink" x="0px" y="0px" viewBox="0 0 500 500"
	 enable-background="new 0 0 500 500" xml:space="preserve">
<switch>
	<foreignObject requiredExtensions="&ns_ai;" x="0" y="0" width="1" height="1">
		<i:pgfRef  xlink:href="#adobe_illustrator_pgf">
		</i:pgfRef>
	</foreignObject>
	<g i:extraneous="self">
		<path id="XMLID_715_" stroke="#F1F2F2" stroke-width="1.6219" stroke-miterlimit="10" d="M226.6,381.5l-8.5-14.2
			c-4.2-7-13.3-9.3-20.3-5.1l-1.5,0.9c-7,4.2-9.3,13.3-5.1,20.3l8.5,14.2c4.2,7,13.3,9.3,20.3,5.1l1.5-0.9
			C228.5,397.6,230.8,388.4,226.6,381.5z M216.2,394.5c-4.9,3-11.4,1.3-14.3-3.6l-3.7-6.2c-3-4.9-1.3-11.4,3.6-14.3l0,0
			c4.9-3,11.4-1.3,14.3,3.6l3.7,6.2C222.7,385.1,221.1,391.5,216.2,394.5L216.2,394.5z"/>
		
			<path id="XMLID_714_" stroke="#F1F2F2" stroke-width="1.6219" stroke-linecap="round" stroke-linejoin="round" stroke-miterlimit="10" d="
			M198.2,330.6l3.4,42.4c0.1,3.1,1.5,5.7,4.5,5.6h0c3.1-0.1,5.4-2.7,5.3-5.8l-2.1-42.8c-0.1-3.1-2.7-5.4-5.8-5.3h0
			C200.5,324.9,198.1,327.5,198.2,330.6z"/>
		<path id="XMLID_711_" stroke="#F1F2F2" stroke-width="1.2562" stroke-miterlimit="10" d="M398.5,431.7l3.2-16.3
			c1.6-8-3.7-15.9-11.7-17.5l-1.7-0.3c-8-1.6-15.9,3.7-17.5,11.7l-3.2,16.3c-1.6,8,3.7,15.9,11.7,17.5l1.7,0.3
			C389.1,445,396.9,439.7,398.5,431.7z M381.9,434.4c-5.7-1.1-9.4-6.7-8.3-12.3l1.4-7.2c1.1-5.7,6.7-9.4,12.3-8.3l0,0
			c5.7,1.1,9.4,6.7,8.3,12.3l-1.4,7.2C393.1,431.7,387.6,435.5,381.9,434.4L381.9,434.4z"/>
		
			<path id="XMLID_710_" stroke="#F1F2F2" stroke-width="1.2562" stroke-linecap="round" stroke-linejoin="round" stroke-miterlimit="10" d="
			M384.8,373.1l-1.8,35.2c-0.2,2.5,0.6,4.9,3.1,5.1l0,0c2.5,0.2,4.7-1.7,4.9-4.2l2.9-35.3c0.2-2.5-1.7-4.7-4.2-4.9l0,0
			C387.2,368.7,385,370.6,384.8,373.1z"/>
		<path id="XMLID_709_" stroke="#F1F2F2" stroke-width="2.8948" stroke-miterlimit="10" d="M233.1,357.5
			C233.1,357.4,233.1,357.4,233.1,357.5c6.7-0.9,13.6,0.3,20.1-1.8c3.5-1.1,6.7-2.8,10.2-3.8c10.3-3,20.8,0.6,30.9,2.8
			c8.4,1.8,18.6,1.3,24.4,8.9c2.3,3.1,3.2,6.9,4.1,10.6c3.3,14,6.7,27.9,9.8,42c2.4,11.2,7.1,22.7,5.9,34.3
			c-1.1,11-11.6,20.7-23.1,17.1c-5.3-1.6-9.5-5.7-13-10.1c-14.5-18.5-18.3-43-32.7-61.7c-5.6-7.3-11.2-14.5-17.5-21.2
			C247.2,369.4,234.8,365.2,233.1,357.5z"/>
		<path id="XMLID_708_" stroke="#F1F2F2" stroke-miterlimit="10" d="M43.8,256.3c0,0-43.7-35-10.1-80.9c0,0-28.2-58.1,61.1-66.5
			c0,0,33.6-50.9,81.8-26.4c0,0,54.1-49.2,113.7,7.8c0,0,68.2-30.9,89.1,35.2c0,0,56.8-12.3,71,48.6c0,0,54.6,19.5,7.1,80.3
			c0,0,25.1,38.9-9.3,60.2c0,0,3.6,24.9-8,43.3c-12.5,19.9-23.9,27.6-59.3,27.8c-24.4,0.1-47.3-29.4-123.2-30.3
			c0,0-48.2,19.1-70.4-20.9c0,0-49,37.3-82.1-32.2C105.3,302.2,49.5,321,43.8,256.3z"/>
		<path id="XMLID_707_" stroke="#F1F2F2" stroke-width="4.3423" stroke-linecap="round" stroke-miterlimit="10" d="M301,174
			c-33.7-25.2-68-3.9-91.3,22.9c-0.5,0.6-1,1.1-1.7,1.4c-4.1,1.6-19-5-24.3-5.1c-10.3-0.2-20.7,2.3-28.4,9.3
			c-7,6.4-10.5,15.1-12.3,24.1c-1.7,8.1,1.7,18.9-2.8,26.7c-5.5,9.7-19.9,11.2-27.4,19.3c-8.6,9.2-11.7,20.6-7.5,32.7
			c0,0,34.7,67.9,79.6,29.5c5.3-4.6,10.8-10.6,16.4-18.4"/>
		<path id="XMLID_706_" stroke="#F1F2F2" stroke-width="4.3423" stroke-linecap="round" stroke-miterlimit="10" d="M418.5,221.3
			c2.6,35.4-31.4,53.5-62.3,48.3"/>
		<path id="XMLID_705_" stroke="#F1F2F2" stroke-width="4.3423" stroke-linecap="round" stroke-miterlimit="10" d="M384.1,271.8
			c0,0,8.2,92.2-101,49.8"/>
		<path id="XMLID_704_" stroke="#F1F2F2" stroke-width="4.3423" stroke-linecap="round" stroke-miterlimit="10" d="M298.8,327
			c0,0-21.9,19.4-42.2,28.8c-20.3,9.4-45.5,12.3-70.2-20.3"/>
		<path id="XMLID_703_" stroke="#F1F2F2" stroke-width="4.3423" stroke-linecap="round" stroke-miterlimit="10" d="M375.8,310.5
			c0,0,52.8,16.6,71.5,2.2c16-12.3,32.2-19.3,3.8-74.6"/>
		<path id="XMLID_702_" stroke="#F1F2F2" stroke-width="4.3423" stroke-linecap="round" stroke-miterlimit="10" d="M457.7,251.9
			c0,0,46.1-54.9-4.3-75c-7.1-2.8-17.1-2-29.6-0.1"/>
		<path id="XMLID_701_" stroke="#F1F2F2" stroke-width="4.3423" stroke-linecap="round" stroke-miterlimit="10" d="M363.7,131.9
			c0,0,60.2-36.9,88.7,43.5"/>
		<path id="XMLID_700_" stroke="#F1F2F2" stroke-width="4.3423" stroke-linecap="round" stroke-miterlimit="10" d="M379.5,125.5
			c8.6-11.1-63.8-91-122.8-2.9"/>
		<path id="XMLID_699_" stroke="#F1F2F2" stroke-width="7.2371" stroke-linecap="round" stroke-miterlimit="10" d="M176.1,84.2"/>
		<path id="XMLID_698_" stroke="#F1F2F2" stroke-width="7.2371" stroke-linecap="round" stroke-miterlimit="10" d="M289.7,89"/>
		<path id="XMLID_697_" stroke="#F1F2F2" stroke-width="4.3423" stroke-linecap="round" stroke-miterlimit="10" d="M204.6,104
			c0,0-61.4-75.8-120.9,22.5"/>
		<path id="XMLID_696_" stroke="#F1F2F2" stroke-width="4.3423" stroke-linecap="round" stroke-miterlimit="10" d="M94.8,109
			c0,0-99.5,5.6-53.4,86.6"/>
		<path id="XMLID_695_" stroke="#F1F2F2" stroke-width="4.3423" stroke-linecap="round" stroke-miterlimit="10" d="M31.7,177.4
			c0,0-28.8,33.9,13.2,80.2"/>
		<path id="XMLID_694_" stroke="#F1F2F2" stroke-width="4.3423" stroke-linecap="round" stroke-miterlimit="10" d="M53.3,225.1
			c0,0-36.7,82.6,49.6,77.8"/>
		<path id="XMLID_693_" stroke="#F1F2F2" stroke-width="4.3423" stroke-linecap="round" stroke-miterlimit="10" d="M42.6,259.9"/>
		<path id="XMLID_692_" stroke="#F1F2F2" stroke-width="4.3181" stroke-linecap="round" stroke-miterlimit="10" d="M230.2,63.1
			c-13.3-2.8-37.8,3.5-51.8,18.6"/>
		<path id="XMLID_691_" stroke="#F1F2F2" stroke-width="4.3423" stroke-linecap="round" stroke-miterlimit="10" d="M195.6,130.9
			c-11-2.1-24.4-2-34.9,2.4c-9.5,4-12.1,11.6-18.8,18.6c-8.1,8.5-15.2,4.7-25.1,8.9c-8.9,3.8-15.1,12.6-15.9,22.4
			c-0.4,5.5,0.7,11-0.4,16.4c-2.5,11.3-14.3,16.7-17.7,27.7c-6.5,21.2,8.3,41.4,22.5,55.5"/>
		<path id="XMLID_690_" stroke="#F1F2F2" stroke-width="4.3423" stroke-linecap="round" stroke-miterlimit="10" d="M251.6,127.9
			c11.7-12.9,24.3-23,42.8-22.4c10.2,0.3,20.3,4.1,28.3,10.4c5.8,4.5,9.1,12.6,14.8,16.5c7.1,5,15.4,4.4,21.4,11.5
			c5.7,6.6,7.6,16.4,6.3,24.9c-2,12.7-9.8,23.6-17.4,34c-8.1,11.1-6,23.6-21,29.7c-8.2,3.4-17.4,3.4-26.2,2.3
			c-9.1-1.1-19.1-2.1-27.8-4.8"/>
		<path id="XMLID_689_" stroke="#F1F2F2" stroke-width="4.3423" stroke-linecap="round" stroke-miterlimit="10" d="M188.5,253.2
			c7.2,10.2,17.9,19.1,30,22.4c31.2,8.6,51.1-18.6,67.3-40.3"/>
		<path id="XMLID_688_" stroke="#F1F2F2" stroke-width="4.3423" stroke-linecap="round" stroke-miterlimit="10" d="M256.6,355.8
			c25.8,1.1,53,3.3,77.1,13.2c14.7,6.1,63.5,28.1,88.8,8.3c39.2-30.6,25.7-62.7,25.7-62.7"/>
		<path id="XMLID_685_" stroke="#F1F2F2" stroke-width="1.5261" stroke-miterlimit="10" d="M106.5,425.7l0.4,22.7
			c0.2,11.2,9.5,20.2,20.7,20l2.4,0c11.2-0.2,20.2-9.5,20-20.7l-0.4-22.7c-0.2-11.2-9.5-20.2-20.7-20l-2.4,0
			C115.3,405.2,106.3,414.5,106.5,425.7z M127.9,417.4c7.9-0.1,14.5,6.2,14.6,14.1l0.2,10c0.1,7.9-6.2,14.5-14.1,14.6h0
			c-7.9,0.1-14.5-6.2-14.6-14.1l-0.2-10C113.7,424.1,120,417.5,127.9,417.4L127.9,417.4z"/>
		<path id="XMLID_682_" stroke="#F1F2F2" stroke-width="1.5261" stroke-miterlimit="10" d="M162.1,370l4.6-23.5
			c2.3-11.6-5.3-22.9-16.9-25.2l-2.5-0.5c-11.6-2.3-22.9,5.3-25.2,16.9l-4.6,23.5c-2.3,11.6,5.3,22.9,16.9,25.2l2.5,0.5
			C148.5,389.2,159.9,381.6,162.1,370z M138.3,373.9c-8.2-1.6-13.5-9.6-11.9-17.8l2-10.3c1.6-8.2,9.6-13.5,17.8-11.9l0,0
			c8.2,1.6,13.5,9.6,11.9,17.8l-2,10.3C154.4,370.1,146.4,375.5,138.3,373.9L138.3,373.9z"/>
		
			<path id="XMLID_681_" stroke="#F1F2F2" stroke-width="1.5261" stroke-linecap="round" stroke-linejoin="round" stroke-miterlimit="10" d="
			M132.3,370.6l-8,48.2c-0.7,3.4,0,6.8,3.5,7.5h0c3.4,0.7,6.8-1.6,7.5-5l9.5-48.2c0.7-3.4-1.6-6.8-5-7.5l0,0
			C136.3,365,133,367.2,132.3,370.6z"/>
		<path id="XMLID_678_" stroke="#F1F2F2" stroke-width="1.5261" stroke-miterlimit="10" d="M136.2,255.2l1,25.4
			c0.5,12.5,11.1,22.3,23.6,21.8l2.7-0.1c12.5-0.5,22.3-11.1,21.8-23.6l-1-25.4c-0.5-12.5-11.1-22.3-23.6-21.8l-2.7,0.1
			C145.6,232.1,135.7,242.7,136.2,255.2z M160,245.3c8.8-0.3,16.3,6.6,16.7,15.4l0.4,11.2c0.3,8.8-6.6,16.3-15.4,16.7h0
			c-8.8,0.3-16.3-6.6-16.7-15.4l-0.4-11.2C144.2,253.2,151.1,245.7,160,245.3L160,245.3z"/>
		<path id="XMLID_675_" stroke="#F1F2F2" stroke-width="1.5261" stroke-miterlimit="10" d="M144.1,161.4l-6.2,24.6
			c-3.1,12.1,4.4,24.5,16.5,27.6l2.6,0.7c12.1,3.1,24.5-4.4,27.6-16.5l6.2-24.6c3.1-12.1-4.4-24.5-16.5-27.6l-2.6-0.7
			C159.5,141.8,147.1,149.2,144.1,161.4z M169.6,158.6c8.6,2.2,13.8,10.9,11.6,19.5l-2.7,10.8c-2.2,8.6-10.9,13.8-19.5,11.6l0,0
			c-8.6-2.2-13.8-10.9-11.6-19.5l2.7-10.8C152.3,161.7,161.1,156.5,169.6,158.6L169.6,158.6z"/>
		<path id="XMLID_672_" stroke="#F1F2F2" stroke-width="1.5261" stroke-miterlimit="10" d="M213.3,116.7l10.7-21.1
			c5.3-10.4,1.3-23.1-8.8-28.2l-2.2-1.1c-10.1-5.1-22.7-0.8-28,9.5l-10.7,21.1c-5.3,10.4-1.3,23.1,8.8,28.2l2.2,1.1
			C195.5,131.4,208.1,127.1,213.3,116.7z M190.1,114.2c-7.1-3.6-10-12.6-6.2-19.9l4.7-9.3c3.7-7.3,12.6-10.4,19.8-6.7l0,0
			c7.1,3.6,10,12.6,6.2,19.9l-4.7,9.3C206.1,114.8,197.2,117.9,190.1,114.2L190.1,114.2z"/>
		
			<path id="XMLID_671_" stroke="#F1F2F2" stroke-width="1.5261" stroke-linecap="round" stroke-linejoin="round" stroke-miterlimit="10" d="
			M154.4,196l-1.4,55.5c0,3.5,4.4,6.4,7.9,6.3l0,0c3.5,0,7.9-2.9,7.9-6.4l-1.6-55.5c0-3.5-2.9-6.4-6.4-6.3h0
			C157.2,189.7,154.4,192.5,154.4,196z"/>
		
			<path id="XMLID_670_" stroke="#F1F2F2" stroke-width="1.5261" stroke-linecap="round" stroke-linejoin="round" stroke-miterlimit="10" d="
			M185.7,110l-22,50.9c-1.4,3.2,0.1,7,3.3,8.4h0c3.2,1.4,7-0.1,8.4-3.3l20.5-50.9c1.4-3.2,1.4-7-1.8-8.4l0,0
			C190.8,105.3,187.1,106.8,185.7,110z"/>
		<path id="XMLID_669_" stroke="#F1F2F2" stroke-width="4.3181" stroke-linecap="round" stroke-miterlimit="10" d="M289.7,89
			c-15.9-15.3-43.6-26-65.6-26.2"/>
		<path id="XMLID_666_" stroke="#F1F2F2" stroke-width="1.6219" stroke-miterlimit="10" d="M408.2,153.9l8.8-23.6
			c4.3-11.6-1.4-24.5-12.7-28.7l-2.5-0.9c-11.3-4.2-24.1,1.8-28.4,13.4l-8.8,23.6c-4.3,11.6,1.4,24.5,12.7,28.7l2.5,0.9
			C391.1,171.6,403.9,165.5,408.2,153.9z M383.3,154.1c-8-3-12-12.1-9-20.3l3.9-10.4c3.1-8.2,12.1-12.5,20.1-9.5l0,0
			c8,3,12,12.1,9,20.3l-3.9,10.4C400.3,152.8,391.3,157.1,383.3,154.1L383.3,154.1z"/>
		
			<path id="XMLID_665_" stroke="#F1F2F2" stroke-width="1.5261" stroke-linecap="round" stroke-linejoin="round" stroke-miterlimit="10" d="
			M152.4,342.2l11.6-58.7c0.4-2.3-1-4.4-3.3-4.9l-4.3-0.8c-2.3-0.4-4.4,1-4.9,3.3l-11.6,58.7c-0.4,2.3,1,4.4,3.3,4.9l4.3,0.8
			C149.8,346,152,344.5,152.4,342.2z"/>
		<path id="XMLID_662_" stroke="#F1F2F2" stroke-width="1.6219" stroke-miterlimit="10" d="M300.7,308.2L313,286
			c6.1-10.9,2.1-24.9-8.8-30.9l-2.4-1.3c-10.9-6.1-24.9-2.1-30.9,8.8l-12.4,22.3c-6.1,10.9-2.1,24.9,8.8,30.9l2.4,1.3
			C280.7,323.2,294.6,319.2,300.7,308.2z M275.3,304.3c-7.7-4.3-10.5-14.1-6.2-21.8l5.4-9.8c4.3-7.7,14.1-10.5,21.8-6.2l0,0
			c7.7,4.3,10.5,14.1,6.2,21.8l-5.4,9.8C292.8,305.8,283,308.6,275.3,304.3L275.3,304.3z"/>
		<path id="XMLID_659_" stroke="#F1F2F2" stroke-width="1.638" stroke-miterlimit="10" d="M367.6,249l16.4-20.1
			c8.1-9.9,6.8-24.4-2.9-32.4l-2.1-1.7c-9.7-7.9-24.2-6.3-32.3,3.6l-16.4,20.1c-8.1,9.9-6.8,24.4,2.9,32.4l2.1,1.7
			C345,260.5,359.6,258.9,367.6,249z M343.2,240.8c-6.8-5.6-7.8-15.9-2.1-22.8l7.2-8.8c5.7-7,16-8.1,22.8-2.5l0,0
			c6.8,5.6,7.8,15.9,2.1,22.8l-7.2,8.8C360.3,245.3,350.1,246.4,343.2,240.8L343.2,240.8z"/>
		
			<path id="XMLID_658_" stroke="#F1F2F2" stroke-width="1.6219" stroke-linecap="round" stroke-linejoin="round" stroke-miterlimit="10" d="
			M299.7,276.2l55.3-32.5c2-1.2,2.6-3.7,1.5-5.7l-2.6-4.5c-1.2-2-3.7-2.6-5.7-1.5l-55.3,32.5c-2,1.2-2.6,3.7-1.5,5.7l2.6,4.5
			C295.2,276.7,297.7,277.3,299.7,276.2z"/>
		<path id="XMLID_657_" stroke="#F1F2F2" stroke-width="7.2371" stroke-linecap="round" stroke-miterlimit="10" d="M235,66.1"/>
		<path id="XMLID_656_" stroke="#F1F2F2" stroke-width="7.2371" stroke-linecap="round" stroke-miterlimit="10" d="M288.1,87.4"/>
		<path id="XMLID_653_" stroke="#F1F2F2" stroke-width="1.6219" stroke-miterlimit="10" d="M226.7,353.7l-1.4,23.1
			c-0.7,11.4,8,21.3,19.4,22l2.5,0.2c11.4,0.7,21.3-8,22-19.4l1.4-23.1c0.7-11.4-8-21.3-19.4-22l-2.5-0.2
			C237.3,333.6,227.4,342.3,226.7,353.7z M249.1,346.9c8,0.5,14.2,7.5,13.7,15.5l-0.6,10.2c-0.5,8-7.5,14.2-15.5,13.7h0
			c-8-0.5-14.2-7.5-13.7-15.5l0.6-10.2C234.1,352.6,241.1,346.4,249.1,346.9L249.1,346.9z"/>
		
			<path id="XMLID_652_" stroke="#F1F2F2" stroke-width="1.6219" stroke-linecap="round" stroke-linejoin="round" stroke-miterlimit="10" d="
			M244.9,376.7l-29.1,7.4c-2.1,0.4-3.7,2.1-3,5.6v0c0.7,3.4,3,5.9,5.1,5.5l29.4-7.6c2.1-0.4,3.5-2,2.8-5.4v0
			C249.3,378.7,247,376.3,244.9,376.7z"/>
		
			<path id="XMLID_651_" stroke="#F1F2F2" stroke-width="1.6219" stroke-linecap="round" stroke-linejoin="round" stroke-miterlimit="10" d="
			M270.3,299.1l-23.8,46.1c-1.8,3.3-2.2,6.9,1.1,8.7l0,0c3.3,1.8,7.4,0.6,9.2-2.6l25.3-45.6c1.8-3.3,0.6-7.4-2.6-9.2l0,0
			C276.2,294.7,272.1,295.9,270.3,299.1z"/>
		
			<path id="XMLID_650_" stroke="#F1F2F2" stroke-width="1.6219" stroke-linecap="round" stroke-linejoin="round" stroke-miterlimit="10" d="
			M378.2,150.2L361,206.6c-1.1,3.6,0.9,7.3,4.5,8.4l0,0c3.6,1.1,7.3-0.9,8.4-4.5l15.6-56.2c1.1-3.6,0.7-7.5-2.9-8.6l0,0
			C383,144.6,379.2,146.6,378.2,150.2z"/>
		
			<path id="XMLID_649_" stroke="#F1F2F2" stroke-width="1.5408" stroke-linecap="round" stroke-linejoin="round" stroke-miterlimit="10" d="
			M401.7,122.1l2.2-26.5c0.2-2.3-2.7-4.4-6.4-4.7c-3.7-0.2-6.9,1.5-7.1,3.8l-1.2,27C392.8,121.6,397.1,121.6,401.7,122.1z"/>
		<path id="XMLID_648_" stroke="#F1F2F2" stroke-width="4.3423" stroke-linecap="round" stroke-miterlimit="10" d="M381.2,124.3
			c7.1-1.9,17-1.4,24.2,0.2"/>
		
			<path id="XMLID_647_" stroke="#F1F2F2" stroke-width="1.5018" stroke-linecap="round" stroke-linejoin="round" stroke-miterlimit="10" d="
			M237.8,40.9L198.9,78c-2.5,2.3-2.5,6.3-0.1,8.8v0c2.4,2.5,6.4,2.7,8.8,0.3l37.5-37.7c2.5-2.3,3.9-5.7,1.5-8.2l0,0
			C244.2,38.8,240.2,38.6,237.8,40.9z"/>
		
			<path id="XMLID_646_" stroke="#F1F2F2" stroke-width="1.5261" stroke-linecap="round" stroke-linejoin="round" stroke-miterlimit="10" d="
			M261.8,69.9c0.1-1.2-0.2-2.4-1.1-3.1l-28.4-25.7c-1.8-1.6-5.2-0.8-7.5,1.8c-2.4,2.6-2.8,6-1,7.7l16.9,14.2
			C240.9,64.7,257.8,68.8,261.8,69.9z"/>
		<path id="XMLID_645_" stroke="#F1F2F2" stroke-width="4.3181" stroke-linecap="round" stroke-miterlimit="10" d="M285.2,85.1
			c-16.8-11.8-29.3-18.3-49.6-21.3"/>
		<path id="XMLID_642_" stroke="#F1F2F2" stroke-width="1.6219" stroke-miterlimit="10" d="M226.6,381.2l-8.5-14.2
			c-4.2-7-13.3-9.3-20.3-5.1l-1.5,0.9c-7,4.2-9.3,13.3-5.1,20.3l8.5,14.2c4.2,7,13.3,9.3,20.3,5.1l1.5-0.9
			C228.5,397.3,230.8,388.2,226.6,381.2z M216.2,394.2c-4.9,3-11.4,1.3-14.3-3.6l-3.7-6.2c-3-4.9-1.3-11.4,3.6-14.3l0,0
			c4.9-3,11.4-1.3,14.3,3.6l3.7,6.2C222.7,384.8,221.1,391.3,216.2,394.2L216.2,394.2z"/>
		
			<path id="XMLID_641_" stroke="#F1F2F2" stroke-width="1.6219" stroke-linecap="round" stroke-linejoin="round" stroke-miterlimit="10" d="
			M198.2,330.3l3.4,42.4c0.1,3.1,1.5,5.7,4.5,5.6h0c3.1-0.1,5.4-2.7,5.3-5.8l-2.1-42.8c-0.1-3.1-2.7-5.4-5.8-5.3h0
			C200.4,324.7,198.1,327.3,198.2,330.3z"/>
		<path id="XMLID_638_" stroke="#F1F2F2" stroke-width="1.2562" stroke-miterlimit="10" d="M398.5,431.4l3.2-16.3
			c1.6-8-3.7-15.9-11.7-17.5l-1.7-0.3c-8-1.6-15.9,3.7-17.5,11.7l-3.2,16.3c-1.6,8,3.7,15.9,11.7,17.5l1.7,0.3
			C389.1,444.7,396.9,439.4,398.5,431.4z M381.9,434.1c-5.7-1.1-9.4-6.7-8.3-12.3l1.4-7.2c1.1-5.7,6.7-9.4,12.3-8.3l0,0
			c5.7,1.1,9.4,6.7,8.3,12.3l-1.4,7.2C393.1,431.5,387.6,435.2,381.9,434.1L381.9,434.1z"/>
		
			<path id="XMLID_637_" stroke="#F1F2F2" stroke-width="1.2562" stroke-linecap="round" stroke-linejoin="round" stroke-miterlimit="10" d="
			M384.7,372.8L383,408c-0.2,2.5,0.6,4.9,3.1,5.1l0,0c2.5,0.2,4.7-1.7,4.9-4.2l2.9-35.3c0.2-2.5-1.7-4.7-4.2-4.9v0
			C387.2,368.4,384.9,370.3,384.7,372.8z"/>
		<path id="XMLID_636_" stroke="#F1F2F2" stroke-miterlimit="10" d="M233.1,357.2C233.1,357.2,233.1,357.1,233.1,357.2
			c6.7-0.9,13.6,0.3,20.1-1.8c3.5-1.1,6.7-2.8,10.2-3.8c10.3-3,20.8,0.6,30.9,2.8c8.4,1.8,18.6,1.3,24.4,8.9
			c2.3,3.1,3.2,6.9,4.1,10.6c3.3,14,6.7,27.9,9.8,42c2.4,11.2,7.1,22.7,5.9,34.3c-1.1,11-11.6,20.7-23.1,17.1
			c-5.3-1.6-9.5-5.7-13-10.1c-14.5-18.5-18.3-43-32.7-61.7c-5.6-7.3-11.2-14.5-17.5-21.2C247.2,369.1,234.8,364.9,233.1,357.2z"/>
		<path id="XMLID_635_" stroke="#F1F2F2" stroke-miterlimit="10" d="M43.8,256.1c0,0-43.7-35-10.1-80.9c0,0-28.2-58.1,61.1-66.5
			c0,0,33.6-50.9,81.8-26.4c0,0,54.1-49.2,113.7,7.8c0,0,68.2-30.9,89.1,35.2c0,0,56.8-12.3,71,48.6c0,0,54.6,19.5,7.1,80.3
			c0,0,25.1,38.9-9.3,60.2c0,0,3.6,24.9-8,43.3c-12.5,19.9-23.9,27.6-59.3,27.8c-24.4,0.1-47.3-29.4-123.2-30.3
			c0,0-48.2,19.1-70.4-20.9c0,0-49,37.3-82.1-32.2C105.2,302,49.5,320.7,43.8,256.1z"/>
		<path id="XMLID_634_" fill="none" stroke="#F1F2F2" stroke-width="4.3423" stroke-linecap="round" stroke-miterlimit="10" d="
			M301,173.7c-33.7-25.2-68-3.9-91.3,22.9c-0.5,0.6-1,1.1-1.7,1.4c-4.1,1.6-19-5-24.3-5.1c-10.3-0.2-20.7,2.3-28.4,9.3
			c-7,6.4-10.5,15.1-12.3,24.1c-1.7,8.1,1.7,18.9-2.8,26.7c-5.5,9.7-19.9,11.2-27.4,19.3c-8.6,9.2-11.7,20.6-7.5,32.7
			c0,0,34.7,67.9,79.6,29.5c5.3-4.6,10.8-10.6,16.4-18.4"/>
		<path id="XMLID_633_" fill="none" stroke="#F1F2F2" stroke-width="4.3423" stroke-linecap="round" stroke-miterlimit="10" d="
			M418.5,221.1c2.6,35.4-31.4,53.5-62.3,48.3"/>
		<path id="XMLID_632_" fill="none" stroke="#F1F2F2" stroke-width="4.3423" stroke-linecap="round" stroke-miterlimit="10" d="
			M384.1,271.5c0,0,8.2,92.2-101,49.8"/>
		<path id="XMLID_631_" fill="none" stroke="#F1F2F2" stroke-width="4.3423" stroke-linecap="round" stroke-miterlimit="10" d="
			M298.8,326.8c0,0-21.9,19.4-42.2,28.8c-20.3,9.4-45.5,12.3-70.2-20.3"/>
		<path id="XMLID_630_" fill="none" stroke="#F1F2F2" stroke-width="4.3423" stroke-linecap="round" stroke-miterlimit="10" d="
			M375.8,310.2c0,0,52.8,16.6,71.5,2.2c16-12.3,32.2-19.3,3.8-74.6"/>
		<path id="XMLID_629_" fill="none" stroke="#F1F2F2" stroke-width="4.3423" stroke-linecap="round" stroke-miterlimit="10" d="
			M457.7,251.6c0,0,46.1-54.9-4.3-75c-7.1-2.8-17.1-2-29.6-0.1"/>
		<path id="XMLID_628_" fill="none" stroke="#F1F2F2" stroke-width="4.3423" stroke-linecap="round" stroke-miterlimit="10" d="
			M363.7,131.6c0,0,60.2-36.9,88.7,43.5"/>
		<path id="XMLID_627_" fill="none" stroke="#F1F2F2" stroke-width="4.3423" stroke-linecap="round" stroke-miterlimit="10" d="
			M379.5,125.3c8.6-11.1-63.8-91-122.8-2.9"/>
		<path id="XMLID_626_" fill="none" stroke="#F1F2F2" stroke-width="7.2371" stroke-linecap="round" stroke-miterlimit="10" d="
			M176.1,83.9"/>
		<path id="XMLID_625_" fill="none" stroke="#F1F2F2" stroke-width="7.2371" stroke-linecap="round" stroke-miterlimit="10" d="
			M289.7,88.7"/>
		<path id="XMLID_624_" fill="none" stroke="#F1F2F2" stroke-width="4.3423" stroke-linecap="round" stroke-miterlimit="10" d="
			M204.6,103.7c0,0-61.4-75.8-120.9,22.5"/>
		<path id="XMLID_623_" fill="none" stroke="#F1F2F2" stroke-width="4.3423" stroke-linecap="round" stroke-miterlimit="10" d="
			M94.8,108.7c0,0-99.5,5.6-53.4,86.6"/>
		<path id="XMLID_622_" fill="none" stroke="#F1F2F2" stroke-width="4.3423" stroke-linecap="round" stroke-miterlimit="10" d="
			M31.7,177.1c0,0-28.8,33.9,13.2,80.2"/>
		<path id="XMLID_621_" fill="none" stroke="#F1F2F2" stroke-width="4.3423" stroke-linecap="round" stroke-miterlimit="10" d="
			M53.3,224.9c0,0-36.7,82.6,49.6,77.8"/>
		<path id="XMLID_620_" fill="none" stroke="#F1F2F2" stroke-width="4.3423" stroke-linecap="round" stroke-miterlimit="10" d="
			M42.6,259.6"/>
		<path id="XMLID_619_" fill="none" stroke="#F1F2F2" stroke-width="4.3181" stroke-linecap="round" stroke-miterlimit="10" d="
			M230.2,62.9c-13.3-2.8-37.8,3.5-51.8,18.6"/>
		<path id="XMLID_618_" fill="none" stroke="#F1F2F2" stroke-width="4.3423" stroke-linecap="round" stroke-miterlimit="10" d="
			M195.6,130.6c-11-2.1-24.4-2-34.9,2.4c-9.5,4-12.1,11.6-18.8,18.6c-8.1,8.5-15.2,4.7-25.1,8.9c-8.9,3.8-15.1,12.6-15.9,22.4
			c-0.4,5.5,0.7,11-0.4,16.4C97.9,210.6,86.1,216,82.7,227c-6.5,21.2,8.3,41.4,22.5,55.5"/>
		<path id="XMLID_617_" fill="none" stroke="#F1F2F2" stroke-width="4.3423" stroke-linecap="round" stroke-miterlimit="10" d="
			M251.5,127.6c11.7-12.9,24.3-23,42.8-22.4c10.2,0.3,20.3,4.1,28.3,10.4c5.8,4.5,9.1,12.6,14.8,16.5c7.1,5,15.4,4.4,21.4,11.5
			c5.7,6.6,7.6,16.4,6.3,24.9c-2,12.7-9.8,23.6-17.4,34c-8.1,11.1-6,23.6-21,29.7c-8.2,3.4-17.4,3.4-26.2,2.3
			c-9.1-1.1-19.1-2.1-27.8-4.8"/>
		<path id="XMLID_616_" fill="none" stroke="#F1F2F2" stroke-width="4.3423" stroke-linecap="round" stroke-miterlimit="10" d="
			M188.5,253c7.2,10.2,17.9,19.1,30,22.4c31.2,8.6,51.1-18.6,67.3-40.3"/>
		<path id="XMLID_615_" fill="none" stroke="#F1F2F2" stroke-width="4.3423" stroke-linecap="round" stroke-miterlimit="10" d="
			M256.6,355.5c25.8,1.1,53,3.3,77.1,13.2c14.7,6.1,63.5,28.1,88.8,8.3c39.2-30.6,25.7-62.7,25.7-62.7"/>
		<path id="XMLID_612_" stroke="#F1F2F2" stroke-width="1.5261" stroke-miterlimit="10" d="M106.5,425.4l0.4,22.7
			c0.2,11.2,9.5,20.2,20.7,20l2.4,0c11.2-0.2,20.2-9.5,20-20.7l-0.4-22.7c-0.2-11.2-9.5-20.2-20.7-20l-2.4,0
			C115.3,404.9,106.3,414.2,106.5,425.4z M127.9,417.1c7.9-0.1,14.5,6.2,14.6,14.1l0.2,10c0.1,7.9-6.2,14.5-14.1,14.6h0
			c-7.9,0.1-14.5-6.2-14.6-14.1l-0.2-10C113.7,423.8,120,417.2,127.9,417.1L127.9,417.1z"/>
		<path id="XMLID_609_" stroke="#F1F2F2" stroke-width="1.5261" stroke-miterlimit="10" d="M162.1,369.8l4.6-23.5
			c2.3-11.6-5.3-22.9-16.9-25.2l-2.5-0.5c-11.6-2.3-22.9,5.3-25.2,16.9l-4.6,23.5c-2.3,11.6,5.3,22.9,16.9,25.2l2.5,0.5
			C148.5,388.9,159.9,381.3,162.1,369.8z M138.2,373.6c-8.2-1.6-13.5-9.6-11.9-17.8l2-10.3c1.6-8.2,9.6-13.5,17.8-11.9l0,0
			c8.2,1.6,13.5,9.6,11.9,17.8l-2,10.3C154.4,369.9,146.4,375.2,138.2,373.6L138.2,373.6z"/>
		
			<path id="XMLID_608_" stroke="#F1F2F2" stroke-width="1.5261" stroke-linecap="round" stroke-linejoin="round" stroke-miterlimit="10" d="
			M132.3,370.4l-8,48.2c-0.7,3.4,0,6.8,3.5,7.5h0c3.4,0.7,6.8-1.6,7.5-5l9.5-48.2c0.7-3.4-1.6-6.8-5-7.5l0,0
			C136.3,364.7,133,366.9,132.3,370.4z"/>
		<path id="XMLID_605_" stroke="#F1F2F2" stroke-width="1.5261" stroke-miterlimit="10" d="M136.2,254.9l1,25.4
			c0.5,12.5,11.1,22.3,23.6,21.8l2.7-0.1c12.5-0.5,22.3-11.1,21.8-23.6l-1-25.4c-0.5-12.5-11.1-22.3-23.6-21.8l-2.7,0.1
			C145.5,231.8,135.7,242.4,136.2,254.9z M159.9,245.1c8.8-0.3,16.3,6.6,16.7,15.4l0.4,11.2c0.3,8.8-6.6,16.3-15.4,16.7h0
			c-8.8,0.3-16.3-6.6-16.7-15.4l-0.4-11.2C144.2,252.9,151.1,245.4,159.9,245.1L159.9,245.1z"/>
		<path id="XMLID_602_" stroke="#F1F2F2" stroke-width="1.5261" stroke-miterlimit="10" d="M144.1,161.1l-6.2,24.6
			c-3.1,12.1,4.4,24.5,16.5,27.6l2.6,0.7c12.1,3.1,24.5-4.4,27.6-16.5l6.2-24.6c3.1-12.1-4.4-24.5-16.5-27.6l-2.6-0.7
			C159.5,141.6,147.1,149,144.1,161.1z M169.6,158.3c8.6,2.2,13.8,10.9,11.6,19.5l-2.7,10.8c-2.2,8.6-10.9,13.8-19.5,11.6l0,0
			c-8.6-2.2-13.8-10.9-11.6-19.5l2.7-10.8C152.3,161.4,161,156.2,169.6,158.3L169.6,158.3z"/>
		<path id="XMLID_599_" stroke="#F1F2F2" stroke-width="1.5261" stroke-miterlimit="10" d="M213.3,116.5L224,95.3
			c5.3-10.4,1.3-23.1-8.8-28.2L213,66c-10.1-5.1-22.7-0.8-28,9.5l-10.7,21.1c-5.3,10.4-1.3,23.1,8.8,28.2l2.2,1.1
			C195.5,131.1,208.1,126.8,213.3,116.5z M190.1,114c-7.1-3.6-10-12.6-6.2-19.9l4.7-9.3c3.7-7.3,12.6-10.4,19.8-6.7l0,0
			c7.1,3.6,10,12.6,6.2,19.9l-4.7,9.3C206.1,114.6,197.2,117.6,190.1,114L190.1,114z"/>
		
			<path id="XMLID_598_" stroke="#F1F2F2" stroke-width="1.5261" stroke-linecap="round" stroke-linejoin="round" stroke-miterlimit="10" d="
			M154.4,195.8l-1.4,55.5c0,3.5,4.4,6.4,7.9,6.3h0c3.5,0,7.9-2.9,7.9-6.4l-1.6-55.5c0-3.5-2.9-6.4-6.4-6.3h0
			C157.2,189.4,154.4,192.3,154.4,195.8z"/>
		
			<path id="XMLID_597_" stroke="#F1F2F2" stroke-width="1.5261" stroke-linecap="round" stroke-linejoin="round" stroke-miterlimit="10" d="
			M185.7,109.8l-22,50.9c-1.4,3.2,0.1,7,3.3,8.4l0,0c3.2,1.4,7-0.1,8.4-3.3l20.5-50.9c1.4-3.2,1.4-7-1.8-8.4v0
			C190.8,105.1,187,106.5,185.7,109.8z"/>
		<path id="XMLID_596_" fill="none" stroke="#F1F2F2" stroke-width="4.3181" stroke-linecap="round" stroke-miterlimit="10" d="
			M289.7,88.7c-15.9-15.3-43.6-26-65.6-26.2"/>
		<path id="XMLID_593_" stroke="#F1F2F2" stroke-width="1.6219" stroke-miterlimit="10" d="M408.2,153.7l8.8-23.6
			c4.3-11.6-1.4-24.5-12.7-28.7l-2.5-0.9c-11.3-4.2-24.1,1.8-28.4,13.4l-8.8,23.6c-4.3,11.6,1.4,24.5,12.7,28.7l2.5,0.9
			C391.1,171.3,403.8,165.3,408.2,153.7z M383.3,153.8c-8-3-12-12.1-9-20.3l3.9-10.4c3.1-8.2,12.1-12.5,20.1-9.5l0,0
			c8,3,12,12.1,9,20.3l-3.9,10.4C400.3,152.5,391.3,156.8,383.3,153.8L383.3,153.8z"/>
		
			<path id="XMLID_592_" stroke="#F1F2F2" stroke-width="1.5261" stroke-linecap="round" stroke-linejoin="round" stroke-miterlimit="10" d="
			M152.4,342l11.6-58.7c0.4-2.3-1-4.4-3.3-4.9l-4.3-0.8c-2.3-0.4-4.4,1-4.9,3.3l-11.6,58.7c-0.4,2.3,1,4.4,3.3,4.9l4.3,0.8
			C149.8,345.7,152,344.2,152.4,342z"/>
		<path id="XMLID_589_" stroke="#F1F2F2" stroke-width="1.6219" stroke-miterlimit="10" d="M300.7,308l12.4-22.3
			c6.1-10.9,2.1-24.9-8.8-30.9l-2.4-1.3c-10.9-6.1-24.9-2.1-30.9,8.8l-12.4,22.3c-6.1,10.9-2.1,24.9,8.8,30.9l2.4,1.3
			C280.7,322.9,294.6,318.9,300.7,308z M275.3,304.1c-7.7-4.3-10.5-14.1-6.2-21.8l5.4-9.8c4.3-7.7,14.1-10.5,21.8-6.2l0,0
			c7.7,4.3,10.5,14.1,6.2,21.8l-5.4,9.8C292.8,305.5,283,308.4,275.3,304.1L275.3,304.1z"/>
		<path id="XMLID_586_" stroke="#F1F2F2" stroke-width="1.638" stroke-miterlimit="10" d="M367.6,248.8l16.4-20.1
			c8.1-9.9,6.8-24.4-2.9-32.4l-2.1-1.7c-9.7-7.9-24.2-6.3-32.3,3.6l-16.4,20.1c-8.1,9.9-6.8,24.4,2.9,32.4l2.1,1.7
			C345,260.3,359.6,258.7,367.6,248.8z M343.2,240.6c-6.8-5.6-7.8-15.9-2.1-22.8l7.2-8.8c5.7-7,16-8.1,22.8-2.5l0,0
			c6.8,5.6,7.8,15.9,2.1,22.8L366,238C360.3,245,350,246.1,343.2,240.6L343.2,240.6z"/>
		
			<path id="XMLID_585_" stroke="#F1F2F2" stroke-width="1.6219" stroke-linecap="round" stroke-linejoin="round" stroke-miterlimit="10" d="
			M299.7,275.9l55.3-32.5c2-1.2,2.6-3.7,1.5-5.7l-2.6-4.5c-1.2-2-3.7-2.6-5.7-1.5l-55.3,32.5c-2,1.2-2.6,3.7-1.5,5.7l2.6,4.5
			C295.2,276.4,297.7,277.1,299.7,275.9z"/>
		<path id="XMLID_584_" fill="none" stroke="#F1F2F2" stroke-width="7.2371" stroke-linecap="round" stroke-miterlimit="10" d="
			M235,65.9"/>
		<path id="XMLID_583_" fill="none" stroke="#F1F2F2" stroke-width="7.2371" stroke-linecap="round" stroke-miterlimit="10" d="
			M288.1,87.1"/>
		<path id="XMLID_580_" stroke="#F1F2F2" stroke-width="1.6219" stroke-miterlimit="10" d="M226.7,353.4l-1.4,23.1
			c-0.7,11.4,8,21.3,19.4,22l2.5,0.2c11.4,0.7,21.3-8,22-19.4l1.4-23.1c0.7-11.4-8-21.3-19.4-22l-2.5-0.2
			C237.2,333.3,227.4,342,226.7,353.4z M249.1,346.7c8,0.5,14.2,7.5,13.7,15.5l-0.6,10.2c-0.5,8-7.5,14.2-15.5,13.7h0
			c-8-0.5-14.2-7.5-13.7-15.5l0.6-10.2C234.1,352.3,241.1,346.2,249.1,346.7L249.1,346.7z"/>
		
			<path id="XMLID_579_" stroke="#F1F2F2" stroke-width="1.6219" stroke-linecap="round" stroke-linejoin="round" stroke-miterlimit="10" d="
			M244.9,376.4l-29.1,7.4c-2.1,0.4-3.7,2.1-3,5.6l0,0c0.7,3.4,3,5.9,5.1,5.5l29.4-7.6c2.1-0.4,3.5-2,2.8-5.4l0,0
			C249.3,378.5,247,376,244.9,376.4z"/>
		
			<path id="XMLID_578_" stroke="#F1F2F2" stroke-width="1.6219" stroke-linecap="round" stroke-linejoin="round" stroke-miterlimit="10" d="
			M270.3,298.9L246.5,345c-1.8,3.3-2.2,6.9,1.1,8.7h0c3.3,1.8,7.4,0.6,9.2-2.6l25.3-45.6c1.8-3.3,0.6-7.4-2.6-9.2l0,0
			C276.2,294.4,272.1,295.6,270.3,298.9z"/>
		
			<path id="XMLID_577_" stroke="#F1F2F2" stroke-width="1.6219" stroke-linecap="round" stroke-linejoin="round" stroke-miterlimit="10" d="
			M378.1,149.9l-17.2,56.4c-1.1,3.6,0.9,7.3,4.5,8.4h0c3.6,1.1,7.3-0.9,8.4-4.5l15.6-56.2c1.1-3.6,0.7-7.5-2.9-8.6l0,0
			C383,144.3,379.2,146.3,378.1,149.9z"/>
		
			<path id="XMLID_576_" stroke="#F1F2F2" stroke-width="1.5408" stroke-linecap="round" stroke-linejoin="round" stroke-miterlimit="10" d="
			M401.7,121.9l2.2-26.5c0.2-2.3-2.7-4.4-6.4-4.7c-3.7-0.2-6.9,1.5-7.1,3.8l-1.2,27C392.8,121.4,397,121.4,401.7,121.9z"/>
		<path id="XMLID_575_" fill="none" stroke="#F1F2F2" stroke-width="4.3423" stroke-linecap="round" stroke-miterlimit="10" d="
			M381.2,124c7.1-1.9,17-1.4,24.2,0.2"/>
		
			<path id="XMLID_574_" stroke="#F1F2F2" stroke-width="1.5018" stroke-linecap="round" stroke-linejoin="round" stroke-miterlimit="10" d="
			M237.8,40.7l-38.9,37.1c-2.5,2.3-2.5,6.3-0.1,8.8l0,0c2.4,2.5,6.4,2.7,8.8,0.3l37.5-37.7c2.5-2.3,3.9-5.7,1.5-8.2v0
			C244.2,38.5,240.2,38.3,237.8,40.7z"/>
		
			<path id="XMLID_573_" stroke="#F1F2F2" stroke-width="1.5261" stroke-linecap="round" stroke-linejoin="round" stroke-miterlimit="10" d="
			M261.8,69.6c0.1-1.2-0.2-2.4-1.1-3.1l-28.4-25.7c-1.8-1.6-5.2-0.8-7.5,1.8c-2.4,2.6-2.8,6-1,7.7l16.9,14.2
			C240.9,64.5,257.8,68.5,261.8,69.6z"/>
		<path id="XMLID_572_" fill="none" stroke="#F1F2F2" stroke-width="4.3181" stroke-linecap="round" stroke-miterlimit="10" d="
			M285.2,84.8C268.5,73,256,66.5,235.6,63.5"/>
	</g>
</switch>
</svg>
